<svg xmlns="http://www.w3.org/2000/svg" xmlns:xlink="http://www.w3.org/1999/xlink" width="66.099" height="66.099" viewBox="0 0 66.099 66.099">
  <defs>
    <filter id="Ellipse_2" x="0" y="0" width="66.099" height="66.099" filterUnits="userSpaceOnUse">
      <feOffset dy="1" input="SourceAlpha"/>
      <feGaussianBlur stdDeviation="4" result="blur"/>
      <feFlood flood-opacity="0.02"/>
      <feComposite operator="in" in2="blur"/>
      <feComposite in="SourceGraphic"/>
    </filter>
  </defs>
  <g id="Group_4" data-name="Group 4" transform="translate(-228.9 -349.206)">
    <g transform="matrix(1, 0, 0, 1, 228.9, 349.21)" filter="url(#Ellipse_2)">
      <circle id="Ellipse_2-2" data-name="Ellipse 2" cx="21.05" cy="21.05" r="21.05" transform="translate(12 11)" fill="#00b12a"/>
    </g>
    <path id="Icon_awesome-check" data-name="Icon awesome-check" d="M6.81,19.236.294,12.719a1,1,0,0,1,0-1.418L1.711,9.883a1,1,0,0,1,1.418,0l4.39,4.39,9.4-9.4a1,1,0,0,1,1.418,0l1.418,1.418a1,1,0,0,1,0,1.418L8.228,19.236A1,1,0,0,1,6.81,19.236Z" transform="translate(252 369.316)" fill="#fff"/>
  </g>
</svg>
