<svg xmlns="http://www.w3.org/2000/svg" width="23.874" height="15.916" viewBox="0 0 23.874 15.916">
  <path id="Icon_metro-menu" data-name="Icon metro-menu" d="M5,23.914H28.872V21.261H5v2.653Zm0-6.632H28.872V14.629H5v2.653ZM5,8V10.65H28.872V8H5Z" transform="translate(-4.999 -7.998)" fill="#222"/>
</svg>
