<svg xmlns="http://www.w3.org/2000/svg" width="20.159" height="20.154" viewBox="0 0 20.159 20.154">
  <path id="Icon_ionic-ios-close" data-name="Icon ionic-ios-close" d="M17.17,14.781l7.2-7.2a1.687,1.687,0,0,0-2.386-2.386l-7.2,7.2-7.2-7.2A1.687,1.687,0,1,0,5.2,7.58l7.2,7.2-7.2,7.2a1.687,1.687,0,0,0,2.386,2.386l7.2-7.2,7.2,7.2a1.687,1.687,0,0,0,2.386-2.386Z" transform="translate(-4.702 -4.704)" fill="#dc0707"/>
</svg>
