<svg xmlns="http://www.w3.org/2000/svg" width="19.215" height="19.21" viewBox="0 0 19.215 19.21">
  <path id="Icon_awesome-instagram" data-name="Icon awesome-instagram" d="M9.6,6.918a4.925,4.925,0,1,0,4.925,4.925A4.917,4.917,0,0,0,9.6,6.918Zm0,8.127a3.2,3.2,0,1,1,3.2-3.2,3.208,3.208,0,0,1-3.2,3.2ZM15.88,6.716a1.149,1.149,0,1,1-1.149-1.149A1.146,1.146,0,0,1,15.88,6.716Zm3.262,1.166A5.685,5.685,0,0,0,17.59,3.857a5.722,5.722,0,0,0-4.025-1.552c-1.586-.09-6.34-.09-7.926,0A5.714,5.714,0,0,0,1.614,3.853,5.7,5.7,0,0,0,.062,7.878c-.09,1.586-.09,6.34,0,7.926a5.685,5.685,0,0,0,1.552,4.025A5.73,5.73,0,0,0,5.639,21.38c1.586.09,6.34.09,7.926,0a5.685,5.685,0,0,0,4.025-1.552A5.722,5.722,0,0,0,19.142,15.8c.09-1.586.09-6.336,0-7.922Zm-2.049,9.623a3.242,3.242,0,0,1-1.826,1.826c-1.265.5-4.265.386-5.663.386s-4.4.111-5.663-.386a3.242,3.242,0,0,1-1.826-1.826c-.5-1.265-.386-4.265-.386-5.663s-.111-4.4.386-5.663A3.242,3.242,0,0,1,3.942,4.354c1.265-.5,4.265-.386,5.663-.386s4.4-.111,5.663.386A3.242,3.242,0,0,1,17.093,6.18c.5,1.265.386,4.265.386,5.663S17.594,16.245,17.093,17.505Z" transform="translate(0.005 -2.238)" fill="#fff"/>
</svg>
