<svg xmlns="http://www.w3.org/2000/svg" width="252" height="43" viewBox="0 0 252 43">
  <text id="INSTASALES." transform="translate(126 32)" fill="#fff" font-size="30" font-family="Poppins-ExtraBold, Poppins" font-weight="800" letter-spacing="0.2em"><tspan x="-125.805" y="0">INSTASALES</tspan><tspan y="0" fill="#fed700">.</tspan></text>
</svg>
