<svg xmlns="http://www.w3.org/2000/svg" width="34.033" height="54.452" viewBox="0 0 34.033 54.452">
  <path id="Icon_awesome-mobile-alt" data-name="Icon awesome-mobile-alt" d="M28.928,0H5.1A5.106,5.106,0,0,0,0,5.1V49.347a5.106,5.106,0,0,0,5.1,5.1H28.928a5.106,5.106,0,0,0,5.1-5.1V5.1A5.106,5.106,0,0,0,28.928,0ZM17.016,51.049a3.4,3.4,0,1,1,3.4-3.4A3.4,3.4,0,0,1,17.016,51.049ZM28.928,39.563a1.28,1.28,0,0,1-1.276,1.276H6.381A1.28,1.28,0,0,1,5.1,39.563V6.381A1.28,1.28,0,0,1,6.381,5.1h21.27a1.28,1.28,0,0,1,1.276,1.276Z" fill="#222"/>
</svg>
