<svg xmlns="http://www.w3.org/2000/svg" width="18.48" height="18.48" viewBox="0 0 18.48 18.48">
  <path id="Icon_open-pencil" data-name="Icon open-pencil" d="M13.86,0,11.55,2.31l4.62,4.62,2.31-2.31ZM9.24,4.62,0,13.86v4.62H4.62l9.24-9.24Z" fill="#222"/>
</svg>
