<svg xmlns="http://www.w3.org/2000/svg" width="65" height="66" viewBox="0 0 65 66">
  <g id="right" transform="translate(-1741 -1129)">
    <ellipse id="Ellipse_2" data-name="Ellipse 2" cx="32.5" cy="33" rx="32.5" ry="33" transform="translate(1741 1129)" fill="#24CE7B"/>
    <path id="Icon_awesome-chevron-left" data-name="Icon awesome-chevron-left" d="M14.7,12.362,4.759,2.419a1.228,1.228,0,0,0-1.736,0l-1.16,1.16a1.228,1.228,0,0,0,0,1.734l7.88,7.917-7.88,7.917a1.227,1.227,0,0,0,0,1.734l1.16,1.16a1.228,1.228,0,0,0,1.736,0L14.7,14.1a1.228,1.228,0,0,0,0-1.736Z" transform="translate(1765.258 1148.724)" fill="#fff"/>
  </g>
</svg>
