<svg id="Stars" xmlns="http://www.w3.org/2000/svg" width="351.74" height="138.025" viewBox="0 0 351.74 138.025">
  <path id="Icon_awesome-star" data-name="Icon awesome-star" d="M66.37,4.8l-17.6,35.688L9.388,46.23A8.63,8.63,0,0,0,4.617,60.947L33.108,88.71l-6.739,39.219a8.621,8.621,0,0,0,12.507,9.084L74.106,118.5l35.23,18.518a8.627,8.627,0,0,0,12.507-9.084L115.1,88.71,143.6,60.947a8.63,8.63,0,0,0-4.771-14.717L99.443,40.488,81.842,4.8A8.633,8.633,0,0,0,66.37,4.8Z" transform="translate(101.998 0.001)" fill="#febf00"/>
  <path id="Icon_awesome-star-2" data-name="Icon awesome-star" d="M39.826,2.82,29.483,23.791,6.342,27.165a5.071,5.071,0,0,0-2.8,8.648L20.28,52.128l-3.96,23.046a5.066,5.066,0,0,0,7.349,5.338l20.7-10.882,20.7,10.882a5.069,5.069,0,0,0,7.349-5.338l-3.96-23.046L85.205,35.813a5.071,5.071,0,0,0-2.8-8.648L59.261,23.791,48.918,2.82A5.073,5.073,0,0,0,39.826,2.82Z" transform="translate(-2.002 56.919)" fill="#febf00"/>
  <path id="Icon_awesome-star-3" data-name="Icon awesome-star" d="M39.826,2.82,29.483,23.791,6.342,27.165a5.071,5.071,0,0,0-2.8,8.648L20.28,52.128l-3.96,23.046a5.066,5.066,0,0,0,7.349,5.338l20.7-10.882,20.7,10.882a5.069,5.069,0,0,0,7.349-5.338l-3.96-23.046L85.205,35.813a5.071,5.071,0,0,0-2.8-8.648L59.261,23.791,48.918,2.82A5.073,5.073,0,0,0,39.826,2.82Z" transform="translate(264.998 56.919)" fill="#febf00"/>
</svg>
